{
  "name": "dinosaur",
  "plural": "dinosaurs",
  "base": "PersistedModel",
  "idInjection": true,
  "options": {
    "validateUpsert": true
  },
  "properties": {
    "genus": {
      "type": "string",
      "required": true,
      "default": "Archaeopteryx"
    },
    "species": {
      "type": "string",
      "required": true,
      "default": "lithographica"
    }
  },
  "validations": [],
  "relations": {},
  "acls": [],
  "methods": {}
}
